{
  "project_info": {
    "project_number": "718129400437",
    "firebase_url": "https://simple-push-cw.firebaseio.com",
    "project_id": "simple-push-cw",
    "storage_bucket": "simple-push-cw.appspot.com"
  },
  "client": [
    {
      "client_info": {
        "mobilesdk_app_id": "1:718129400437:android:cc02937f23e776d8",
        "android_client_info": {
          "package_name": "com.simplepushcw.app"
        }
      },
      "oauth_client": [
        {
          "client_id": "718129400437-hj3gtdlrq1leha750fp117rm14vqd9bm.apps.googleusercontent.com",
          "client_type": 3
        }
      ],
      "api_key": [
        {
          "current_key": "AIzaSyCKzCb7XvgPEIn66tOaKY649Lp-C5pAozE"
        }
      ],
      "services": {
        "analytics_service": {
          "status": 1
        },
        "appinvite_service": {
          "status": 1,
          "other_platform_oauth_client": []
        },
        "ads_service": {
          "status": 2
        }
      }
    }
  ],
  "configuration_version": "1"
}